{
  "grads": [
    {
      "name": "Hu, Qingyuan",
      "desc": "PhD 06, BASF"
    },
    {
      "name": "Wu, Zhiwang",
      "desc": "PhD 06"
    },
    {
      "name": "Peng, Huisheng",
      "desc": "PhD 06, Professor at Fudan University, China"
    },
    {
      "name": "Luo, Hongmei",
      "desc": "PhD 06, Los Alamos National Lab."
    },
    {
      "name": "Kou, Rong",
      "desc": "PhD 06"
    },
    {
      "name": "Wang, Donghai",
      "desc": "PhD 06, Professor, Pennsylvania State University"
    },
    {
      "name": "Zheng, Tonghua",
      "desc": "PhD 06"
    },
    {
      "name": "Daniel U",
      "desc": "M Engr 06"
    },
    {
      "name": "Byron F. McCaughey",
      "desc": "PhD 05, Bechman Fellow, UIUC"
    },
    {
      "name": "Eric Hampsey",
      "desc": "PhD 04, Intel"
    },
    {
      "name": "Li, Xuan",
      "desc": "PhD 04"
    },
    {
      "name": "Xiao, Qiangfeng",
      "desc": "PhD 10, General Motors"
    },
    {
      "name": "Weng, Ding",
      "desc": "PhD 12, Postdoc at Harvard University"
    },
    {
      "name": "Kimberly Cross",
      "desc": "PhD 12"
    },
    {
      "name": "Hiesang Sohn",
      "desc": "PhD 12, Postdoc at Pennsylvania State University"
    },
    {
      "name": "Pao, Chih-Ning",
      "desc": "PhD 12, Evidia Biosciences"
    },
    {
      "name": "Chen, Zheng",
      "desc": "PhD 12, Faculty at UC San Diego"
    },
    {
      "name": "Lynn Rice",
      "desc": "M Engr 12"
    },
    {
      "name": "Du, Juanjuan",
      "desc": "PhD 13, Faculty at Tsing-hua University"
    },
    {
      "name": "Wang, Xiaolei",
      "desc": "PhD 13, Postdoc at Waterloo University"
    },
    {
      "name": "Liu, Tao",
      "desc": "MA 14, Somewhere at Houston"
    },
    {
      "name": "Zhou, Huihui",
      "desc": "PhD 15, Huawei"
    },
    {
      "name": "Zhao, Lin",
      "desc": "M Engr 14"
    },
    {
      "name": "Yang, Qiong",
      "desc": "M Engr 15"
    },
    {
      "name": "Bai, Sofia",
      "desc": "M Engr 16"
    },
    {
      "name": "Li, Xinru",
      "desc": "M Engr 16"
    },
    {
      "name": "Li, Ziyi",
      "desc": "M Engr 16"
    },
    {
      "name": "Li, Wendi",
      "desc": "M Engr 16"
    },
    {
      "name": "Li, Jie",
      "desc": "PhD 16, Postdoc at City of Hope"
    },
    {
      "name": "Liu, Yang",
      "desc": "PhD 16, Faculty at Nankai University"
    },
    {
      "name": "Fuhr, Addis",
      "desc": "Ph.D. Candidate at UCLA Chemical Engineering"
    }, 
    {
      "name": "Peng, Kang",
      "desc": "M Engr 17"
    }, 
    {
      "name": "Chen, Weiguo",
      "desc": "M Engr 17"
    },
    {
      "name": "Le, Zaiyuan",
      "desc": "PhD 18, Engineer at A123 Systems"
    },
    {
      "name": "Liu, Fang",
      "desc": "PhD 18, Postdoc at Stanford University"
    },
    {
      "name": "Shen, Gurong",
      "desc": "PhD 18, Tianjin University"
    },
    {
      "name": "Zhao, Ming",
      "desc": "PhD 18, Shenzhen"
    },
    {
      "name": "Liu, Zhuang",
      "desc": "PhD 18, Graduate Student at Boston University"
    },
    {
      "name": "Li, Defu",
      "desc": "MS 18, Graduate Student at UCLA"
    }

  ],

  "postdocs": [
    {
      "name": "Lu, Guang",
      "desc": "Northwestern University"
    },
    {
      "name": "Pang, Jiebin",
      "desc": "University of New Mexico"
    },
    {
      "name": "Ji, Xiang-Ling",
      "desc": "State Key Laboratory of Polymer Physics and Chemistry, Chinese Academy of Sciences, Changchun, China"
    },
    {
      "name": "Wang, Junwe",
      "desc": "North Carolina State University"
    },
    {
      "name": "Huang, Kun",
      "desc": "The State University of New York, Buffalo"
    },
    {
      "name": "Yang, Zhenglong",
      "desc": "LuDong University, China"
    },
    {
      "name": "Pan, Daochen",
      "desc": "State Key Laboratory of Polymer Physics and Chemistry, Chinese Academy of Sciences, Changchun, China"
    },
    {
      "name": "Yan, Ming",
      "desc": "Calimmune, Inc"
    },
    {
      "name": "Weng, Zhe",
      "desc": "Post-doc at Yale Univ."
    },
    {
      "name": "Liu, Jing",
      "desc": "Faculty at Qingdao University of Technology"
    },
    {
      "name": "Yu, Zenan",
      "desc": "Senior Process Development Engineer at Stealth Mode Startup Company"
    },
    {
      "name": "Wu, Haobin",
      "desc": "Faculty at Zhejiang University"
    },
    {
      "name": "Zhang, Lu",
      "desc": "R&D Engineer at Sonova Group"
    },
    {
      "name": "Chen, Gen",
      "desc": "Academic position in China"
    },
    {
      "name": "Liu, Chaoyong",
      "desc": "Faculty at Beijing University of Chemical Technology"
    },
    {
      "name": "Wu, Haiping",
      "desc": "Postdoc research associate at PNNL"
    },
    {
      "name": "Bai, Haotian",
      "desc": "Postdoc researcher at the Hongkong University of Science and Technoogy"
    }
  ],

  "visitings": [
    {
      "name": "Jakobsen, Hans",
      "desc": "Aalborg University, Denmark"
    },
    {
      "name": "Wan, Ying",
      "desc": "Shanghai Normal University, China"
    },
    {
      "name": "Ma, Jing",
      "desc": "National Science Foundation of China"
    },
    {
      "name": "Yuan, Xubo",
      "desc": "Professor, Tianjin University, China"
    },
    {
      "name": "He, Fang",
      "desc": "Associate professor, Tianjin University, China"
    },
    {
      "name": "Yang, Mu",
      "desc": "Professor, University of Science and Technology Beijing, China"
    },
    {
      "name": "Zhu, Weiping",
      "desc": "Professor"
    },
    {
      "name": "Qin, Yaochun",
      "desc": "Associate professor, Harbin Institute of Technology, China"
    },
    {
      "name": "Zhou, Longping",
      "desc": "The High School Affiliated to Renmin University of China"
    },
    {
      "name": "Zhang, Fang",
      "desc": "Associate professor, Shanghai Normal University, China"
    },
    {
      "name": "Zhang, Jianjun",
      "desc": "Associate professor, Beijing University of Chemical Technology"
    },
    {
      "name": "Pu, Yuan",
      "desc": "Associate professor, Beijing University of Chemical Technology"
    },
    {
      "name": "Wang, Jiexin",
      "desc": "Associate professor, Beijing University of Chemical Technology"
    },
    {
      "name": "Lai, Chunyan",
      "desc": "Shanghai University of Electric Power"
    },
    {
      "name": "Lu, Xianbo",
      "desc": "Dalian Institute of Chemical Physics , Chinese Academy of Sciences"
    },
    {
      "name": "Wang, Xiaofeng",
      "desc": "Associate Professor @ University of South China"
    },
    {
      "name": "Chen, Chen",
      "desc": "Associate Professor @ Sichuan University"
    },
    {
      "name": "Yuan, Yin",
      "desc": "ICCAS"
    },
    {
      "name": "Ma, Yunfei",
      "desc": "Associate Professor @ East China University of Science and Technology"
    },
    {
      "name": "Wu, Zhengying",
      "desc": "Associate Professor @ Suzhou University of Science and Technology"
    },
    {
      "name": "Ren, Yurong",
      "desc": "Associate Professor @ Changzhou University"
    },
    {
      "name": "Xie, Jing",
      "desc": "Associate professor, Beijing University of Chemical Technology"
    },
    {
      "name": "Li, Yuhao",
      "desc": "China National Textile And Apparel Council"
    },
    {
      "name": "Zhang, Yuewei",
      "desc": "Tianjin Science and Technology Committee"
    },
    {
      "name": "Wen, Jing",
      "desc": "Research Scientist, UCLA"
    },
    {
      "name": "Dai, Kun",
      "desc": "Assistant professor, Zhengzhou University"
    },
    {
      "name": "Zhu, Qi",
      "desc": ""
    },
    {
      "name": "Zhu, Mingfu",
      "desc": ""
    },
    {
      "name": "Peng, Yiting",
      "desc": "Shanghai University of Electric Power"
    },
    {
      "name": "Yan, Chunzhu",
      "desc": ""
    },
    {
      "name": "Jin, Xin",
      "desc": "Postdoc, Shanghai Jiao Tong University"
    },
    {
      "name": "Jin, Jing",
      "desc": ""
    },
    {
      "name": "Wei, Wei",
      "desc": "Unilever"
    },
    {
      "name": "Li, Ge",
      "desc": "University of Waterloo"
    },
    {
      "name": "Ren, Lulu",
      "desc": ""
    },
    {
      "name": "Lei, Chao",
      "desc": ""
    },
    {
      "name": "Jia, Xilai",
      "desc": ""
    },
    {
      "name": "Cheng, Yanhua",
      "desc": ""
    },
    {
      "name": "Cui, Xia",
      "desc": ""
    },
    {
      "name": "Zhang, Linlin",
      "desc": "Xinhua Hospital, Shanghai"
    },
    {
      "name": "Qian, Xiaomin",
      "desc": "Tianjin University"
    },
    {
      "name": "Sun, Fei",
      "desc": "Harbin Institute of Technology"
    },
    {
      "name": "Wu, Xu",
      "desc": "Central China Normal University"
    },
    {
      "name": "Geng, Zhen",
      "desc": "China Shenhua Energy"
    },
    {
      "name": "Gao, Shan",
      "desc": "Zhejiang University"
    },
    {
      "name": "Yang, Yilong",
      "desc": "Beijing Institute of Biotechnology"
    },
    {
      "name": "Li, Linlin",
      "desc": "Nanyang Technological University"
    },
    {
      "name": "Nie, Ping",
      "desc": "Nanjing University of Aeronautics and Astronautics"
    },
    {
      "name": "Zhang, Xiaopei",
      "desc": "Shanghai Jiao Tong Univerisity"
    },
    {
      "name": "Chen, Dong",
      "desc": "Shanghai Jiao Tong Univerisity"
    },
    {
      "name": "Liu, Xiaoyan",
      "desc": "Shanghai Normal University"
    },
    {
      "name": "Gao, Peng",
      "desc": "Genscript"
    },
    {
      "name": "Geng, Zhen",
      "desc": "Tianjin University"
    },
    {
      "name": "Lei, Jiandu",
      "desc": "Professor at Beijing Forestry University"
    },
    {
      "name": "Ma, Ruguang",
      "desc": "Assistant Professor at Chinese Academy of Sciences"
    }
  
 ]

}
